<svg style="position: absolute; width: 0; height: 0; overflow: hidden;" version="1.1" xmlns="http://www.w3.org/2000/svg" xmlns:xlink="http://www.w3.org/1999/xlink">
<defs>
<symbol id="icon-instagram" viewBox="0 0 72 72">
<title>instagram</title>
<path d="M36 6.483c9.619 0 10.758 0.042 14.541 0.211 3.516 0.155 5.414 0.745 6.68 1.237 1.673 0.647 2.883 1.434 4.134 2.686 1.266 1.266 2.039 2.461 2.7 4.134 0.492 1.266 1.083 3.178 1.238 6.68 0.169 3.797 0.211 4.936 0.211 14.541s-0.042 10.758-0.211 14.541c-0.155 3.516-0.745 5.414-1.238 6.68-0.647 1.673-1.434 2.883-2.686 4.134-1.266 1.266-2.461 2.039-4.134 2.7-1.266 0.492-3.178 1.083-6.68 1.238-3.797 0.169-4.936 0.211-14.541 0.211s-10.758-0.042-14.541-0.211c-3.516-0.155-5.414-0.745-6.68-1.238-1.673-0.647-2.883-1.434-4.134-2.686-1.266-1.266-2.039-2.461-2.7-4.134-0.492-1.266-1.083-3.178-1.237-6.68-0.169-3.797-0.211-4.936-0.211-14.541s0.042-10.758 0.211-14.541c0.155-3.516 0.745-5.414 1.237-6.68 0.647-1.673 1.434-2.883 2.686-4.134 1.266-1.266 2.461-2.039 4.134-2.7 1.266-0.492 3.178-1.083 6.68-1.237 3.783-0.169 4.922-0.211 14.541-0.211zM36 0c-9.773 0-10.997 0.042-14.836 0.211-3.825 0.169-6.455 0.787-8.733 1.673-2.377 0.928-4.387 2.152-6.384 4.162-2.011 1.997-3.234 4.008-4.162 6.37-0.886 2.292-1.505 4.908-1.673 8.733-0.169 3.853-0.211 5.077-0.211 14.85s0.042 10.997 0.211 14.836c0.169 3.825 0.787 6.455 1.673 8.733 0.928 2.377 2.152 4.388 4.162 6.384 1.997 1.997 4.008 3.234 6.37 4.148 2.292 0.886 4.908 1.505 8.733 1.673 3.839 0.169 5.063 0.211 14.836 0.211s10.997-0.042 14.836-0.211c3.825-0.169 6.455-0.787 8.733-1.673 2.363-0.914 4.373-2.152 6.37-4.148s3.234-4.008 4.148-6.37c0.886-2.292 1.505-4.908 1.673-8.733 0.169-3.839 0.211-5.063 0.211-14.836s-0.042-10.997-0.211-14.836c-0.169-3.825-0.788-6.455-1.673-8.733-0.886-2.391-2.109-4.402-4.12-6.398-1.997-1.997-4.008-3.234-6.37-4.148-2.292-0.886-4.908-1.505-8.733-1.673-3.853-0.183-5.077-0.225-14.85-0.225v0z"></path>
<path d="M36 17.508c-10.209 0-18.492 8.283-18.492 18.492s8.283 18.492 18.492 18.492 18.492-8.283 18.492-18.492c0-10.209-8.283-18.492-18.492-18.492zM36 47.995c-6.623 0-11.995-5.372-11.995-11.995s5.372-11.995 11.995-11.995c6.623 0 11.995 5.372 11.995 11.995s-5.372 11.995-11.995 11.995z"></path>
<path d="M59.541 16.777c0 2.384-1.933 4.317-4.317 4.317s-4.317-1.933-4.317-4.317c0-2.384 1.933-4.317 4.317-4.317s4.317 1.933 4.317 4.317z"></path>
</symbol>
<symbol id="icon-twitter" viewBox="0 0 72 72">
<title>twitter</title>
<path d="M72 15.919c-2.644 1.181-5.498 1.969-8.48 2.32 3.052-1.828 5.386-4.725 6.497-8.17-2.855 1.688-6.019 2.925-9.38 3.586-2.7-2.869-6.539-4.655-10.786-4.655-8.156 0-14.766 6.609-14.766 14.766 0 1.153 0.127 2.278 0.38 3.361-12.277-0.619-23.161-6.497-30.445-15.441-1.266 2.18-1.997 4.725-1.997 7.425 0 5.119 2.602 9.647 6.567 12.291-2.419-0.070-4.697-0.745-6.694-1.842 0 0.056 0 0.127 0 0.183 0 7.158 5.091 13.134 11.855 14.484-1.237 0.337-2.545 0.52-3.895 0.52-0.956 0-1.87-0.098-2.784-0.267 1.884 5.864 7.341 10.139 13.795 10.266-5.063 3.966-11.419 6.328-18.352 6.328-1.195 0-2.362-0.070-3.53-0.211 6.553 4.205 14.316 6.637 22.655 6.637 27.169 0 42.033-22.514 42.033-42.033 0-0.647-0.014-1.28-0.042-1.912 2.883-2.067 5.386-4.669 7.369-7.636z"></path>
</symbol>
<symbol id="icon-facebook" viewBox="0 0 72 72">
<title>facebook</title>
<path d="M65.25 0h-58.5c-3.712 0-6.75 3.038-6.75 6.75v58.5c0 3.712 3.038 6.75 6.75 6.75h29.25v-31.5h-9v-9h9v-4.5c0-7.439 6.061-13.5 13.5-13.5h9v9h-9c-2.475 0-4.5 2.025-4.5 4.5v4.5h13.5l-2.25 9h-11.25v31.5h20.25c3.712 0 6.75-3.038 6.75-6.75v-58.5c0-3.712-3.038-6.75-6.75-6.75z"></path>
</symbol>
<symbol id="icon-logo" viewBox="0 0 57 72">
<title>logo</title>
<path d="M55.527 21.792l-2.634-0.187c-0.521-0.092-0.911-0.541-0.911-1.082 0-0.068 0.006-0.134 0.018-0.198l-0.001 0.007 0.686-6.344c0.041-0.608 0.539-1.087 1.151-1.098h0.001l2.634 0.187c0.521 0.092 0.911 0.541 0.911 1.082 0 0.068-0.006 0.134-0.018 0.198l0.001-0.007-0.675 6.344c-0.041 0.612-0.545 1.093-1.163 1.098h-0z"></path>
<path d="M53.809 39.183l-2.634-0.187c-0.521-0.092-0.911-0.541-0.911-1.082 0-0.068 0.006-0.134 0.018-0.198l-0.001 0.007 0.675-6.344c0.041-0.608 0.539-1.087 1.151-1.098h0.001l2.634 0.187c0.521 0.092 0.911 0.541 0.911 1.082 0 0.068-0.006 0.134-0.018 0.198l0.001-0.007-0.675 6.344c-0.041 0.608-0.539 1.087-1.151 1.098h-0.001z"></path>
<path d="M52.097 56.574l-2.634-0.187c-0.521-0.092-0.911-0.541-0.911-1.082 0-0.068 0.006-0.134 0.018-0.198l-0.001 0.007 0.675-6.344c0.041-0.608 0.539-1.087 1.151-1.098h0.001l2.634 0.187c0.521 0.092 0.911 0.541 0.911 1.082 0 0.068-0.006 0.134-0.018 0.198l0.001-0.007-0.691 6.295c-0.015 0.624-0.513 1.126-1.134 1.147l-0.002 0z"></path>
<path d="M1.834 21.792l2.634-0.187c0.521-0.092 0.911-0.541 0.911-1.082 0-0.068-0.006-0.134-0.018-0.198l0.001 0.007-0.67-6.344c-0.041-0.608-0.539-1.087-1.151-1.098h-0.001l-2.634 0.187c-0.524 0.089-0.918 0.54-0.918 1.083 0 0.058 0.004 0.114 0.013 0.169l-0.001-0.006 0.686 6.344c0.027 0.618 0.527 1.111 1.146 1.125h0.001z"></path>
<path d="M3.552 39.183l2.634-0.187c0.521-0.092 0.911-0.541 0.911-1.082 0-0.068-0.006-0.134-0.018-0.198l0.001 0.007-0.67-6.344c-0.041-0.608-0.539-1.087-1.151-1.098h-0.001l-2.634 0.187c-0.521 0.092-0.911 0.541-0.911 1.082 0 0.068 0.006 0.134 0.018 0.198l-0.001-0.007 0.67 6.316c0.027 0.62 0.53 1.114 1.151 1.125h0.001z"></path>
<path d="M5.269 56.574l2.634-0.187c0.513-0.099 0.895-0.544 0.895-1.079 0-0.069-0.006-0.136-0.018-0.201l0.001 0.007-0.659-6.344c-0.041-0.608-0.539-1.087-1.151-1.098h-0.001l-2.634 0.187c-0.521 0.092-0.911 0.541-0.911 1.082 0 0.068 0.006 0.134 0.018 0.198l-0.001-0.007 0.675 6.295c0.015 0.629 0.523 1.135 1.151 1.147h0.001z"></path>
<path d="M22.056 13.171c0.017 0.147 0.027 0.316 0.027 0.488s-0.010 0.342-0.029 0.509l0.002-0.020c-0.25 2.39-2.254 4.237-4.69 4.237-0.012 0-0.025-0-0.037-0h0.002c-0.41-0.005-0.804-0.063-1.179-0.167l0.032 0.008c-0.017-0.004-0.036-0.006-0.056-0.006-0.142 0-0.258 0.115-0.258 0.258 0 0.083 0.039 0.156 0.099 0.203l0.001 0c0.69 0.463 1.54 0.738 2.454 0.738 0.166 0 0.33-0.009 0.491-0.027l-0.020 0.002c2.281-0.249 4.040-2.165 4.040-4.491 0-0.68-0.15-1.324-0.419-1.902l0.012 0.028c-0.047-0.069-0.125-0.114-0.214-0.114-0.142 0-0.257 0.115-0.258 0.257v0z"></path>
<path d="M15.789 14.79c0.224-1.376 1.296-2.448 2.654-2.67l0.019-0.003c0.146-0.024 0.313-0.038 0.484-0.038 0.375 0 0.735 0.066 1.069 0.187l-0.022-0.007c0.025 0.009 0.053 0.013 0.082 0.013 0.142 0 0.258-0.115 0.258-0.258 0-0.072-0.029-0.137-0.077-0.184v0c-0.591-0.539-1.38-0.87-2.246-0.87-0.106 0-0.21 0.005-0.313 0.014l0.013-0.001c-1.633 0.152-2.922 1.44-3.072 3.060l-0.001 0.013c-0.008 0.088-0.013 0.19-0.013 0.294 0 0.872 0.334 1.666 0.882 2.26l-0.002-0.002c0.047 0.047 0.112 0.077 0.184 0.077 0.142 0 0.258-0.115 0.258-0.258 0-0.029-0.005-0.058-0.014-0.084l0.001 0.002c-0.115-0.313-0.182-0.675-0.182-1.052 0-0.175 0.014-0.347 0.042-0.514l-0.002 0.018z"></path>
<path d="M23.598 30.512c0.017 0.147 0.027 0.316 0.027 0.488s-0.010 0.342-0.029 0.509l0.002-0.020c-0.25 2.39-2.254 4.237-4.69 4.237-0.012 0-0.025-0-0.037-0h0.002c-0.41-0.005-0.804-0.063-1.179-0.167l0.032 0.008c-0.017-0.004-0.036-0.006-0.056-0.006-0.142 0-0.258 0.115-0.258 0.258 0 0.083 0.039 0.156 0.099 0.203l0.001 0c0.69 0.463 1.54 0.738 2.454 0.738 0.166 0 0.33-0.009 0.491-0.027l-0.020 0.002c2.282-0.245 4.043-2.16 4.043-4.487 0-0.681-0.151-1.328-0.422-1.907l0.012 0.028c-0.047-0.069-0.125-0.114-0.214-0.114-0.142 0-0.257 0.115-0.258 0.257v0z"></path>
<path d="M17.353 32.109c0.224-1.376 1.296-2.448 2.654-2.67l0.019-0.003c0.146-0.024 0.313-0.038 0.484-0.038 0.375 0 0.735 0.066 1.069 0.187l-0.022-0.007c0.025 0.009 0.053 0.013 0.082 0.013 0.142 0 0.258-0.115 0.258-0.258 0-0.072-0.029-0.137-0.077-0.184v0c-0.592-0.546-1.386-0.88-2.258-0.88-0.103 0-0.206 0.005-0.307 0.014l0.013-0.001c-1.633 0.152-2.922 1.44-3.072 3.060l-0.001 0.013c-0.008 0.088-0.013 0.19-0.013 0.294 0 0.872 0.334 1.666 0.882 2.26l-0.002-0.002c0.047 0.047 0.112 0.077 0.184 0.077 0.142 0 0.258-0.115 0.258-0.258 0-0.029-0.005-0.058-0.014-0.084l0.001 0.002c-0.112-0.309-0.177-0.666-0.177-1.038 0-0.176 0.014-0.348 0.042-0.516l-0.003 0.018z"></path>
<path d="M25.173 47.832c0.017 0.147 0.027 0.316 0.027 0.488s-0.010 0.342-0.029 0.509l0.002-0.020c-0.25 2.39-2.254 4.237-4.69 4.237-0.012 0-0.025-0-0.037-0h0.002c-0.41-0.005-0.804-0.063-1.179-0.167l0.032 0.008c-0.017-0.004-0.036-0.006-0.056-0.006-0.142 0-0.258 0.115-0.258 0.258 0 0.083 0.039 0.156 0.099 0.203l0.001 0c0.69 0.463 1.54 0.738 2.454 0.738 0.166 0 0.33-0.009 0.491-0.027l-0.020 0.002c2.282-0.245 4.043-2.16 4.043-4.487 0-0.681-0.151-1.328-0.422-1.907l0.012 0.028c-0.047-0.069-0.125-0.114-0.214-0.114-0.142 0-0.257 0.115-0.258 0.257v0z"></path>
<path d="M18.912 49.429c0.224-1.376 1.296-2.448 2.654-2.67l0.019-0.003c0.146-0.024 0.313-0.038 0.484-0.038 0.375 0 0.735 0.066 1.069 0.187l-0.022-0.007c0.025 0.009 0.053 0.013 0.082 0.013 0.142 0 0.258-0.115 0.258-0.258 0-0.072-0.029-0.137-0.077-0.184v0c-0.593-0.547-1.388-0.883-2.261-0.883-0.093 0-0.184 0.004-0.275 0.011l0.012-0.001c-1.633 0.152-2.922 1.44-3.072 3.060l-0.001 0.013c-0.008 0.088-0.013 0.19-0.013 0.294 0 0.872 0.334 1.666 0.882 2.26l-0.002-0.002c0.047 0.047 0.112 0.077 0.184 0.077 0.142 0 0.258-0.115 0.258-0.258 0-0.029-0.005-0.058-0.014-0.084l0.001 0.002c-0.124-0.324-0.196-0.698-0.196-1.090 0-0.156 0.011-0.309 0.033-0.458l-0.002 0.017z"></path>
<path d="M48.189 4.89c-2.64-0.241-6.997-0.724-9.499-1.487-3.781-1.147-10.010-3.402-10.010-3.402l-8.402 2.107c-0.274 0.035-0.484 0.268-0.484 0.549 0 0.305 0.248 0.553 0.553 0.553 0.024 0 0.048-0.002 0.071-0.005l-0.003 0 4.939-0.033c1.818 0 3.293 1.474 3.293 3.293v0 56.53c0 1.349-1.093 2.442-2.442 2.442-0.485 0-0.936-0.141-1.316-0.384l0.010 0.006-0.115-0.071c-4.673-3.013-7.939-7.865-8.778-13.509l-0.013-0.106-6.772-46.487h-0.038c-1.157 0.099-2.058 1.063-2.058 2.237 0 0.080 0.004 0.159 0.012 0.237l-0.001-0.010 4.835 48.704c0.325 3.375 1.18 6.473 2.483 9.324l-0.074-0.181c0.922 2.025 1.844 4.599 1.844 6.805h24.937c0-2.195 0.916-4.758 1.833-6.783 1.234-2.689 2.091-5.811 2.405-9.090l0.009-0.118 4.829-48.66c0.007-0.067 0.011-0.144 0.011-0.222 0-1.174-0.901-2.137-2.050-2.236l-0.008-0.001zM37.214 15.048c0.209-2.147 1.892-3.842 4.014-4.070l0.020-0.002c0.141-0.016 0.305-0.025 0.471-0.025 0.914 0 1.763 0.276 2.47 0.749l-0.016-0.010c0.061 0.048 0.1 0.121 0.1 0.204 0 0.142-0.115 0.258-0.258 0.258-0.020 0-0.039-0.002-0.058-0.006l0.002 0c-0.344-0.097-0.741-0.154-1.15-0.159h-0.003c-0.010-0-0.023-0-0.035-0-2.435 0-4.439 1.847-4.688 4.216l-0.002 0.020c-0.017 0.147-0.027 0.316-0.027 0.488s0.010 0.342 0.029 0.509l-0.002-0.020c0 0.005 0.001 0.011 0.001 0.018 0 0.142-0.115 0.258-0.258 0.258-0.097 0-0.181-0.053-0.225-0.132l-0.001-0.001c-0.25-0.543-0.395-1.178-0.395-1.847 0-0.157 0.008-0.313 0.024-0.466l-0.002 0.019zM35.672 32.378c0.208-2.143 1.885-3.837 4.002-4.070l0.020-0.002c0.141-0.016 0.305-0.025 0.471-0.025 0.914 0 1.763 0.276 2.47 0.749l-0.016-0.010c0.061 0.048 0.1 0.121 0.1 0.204 0 0.142-0.115 0.258-0.258 0.258-0.020 0-0.039-0.002-0.058-0.006l0.002 0c-0.343-0.096-0.737-0.154-1.144-0.159h-0.003c-0.010-0-0.023-0-0.035-0-2.435 0-4.439 1.847-4.688 4.216l-0.002 0.020c-0.017 0.147-0.027 0.316-0.027 0.488s0.010 0.342 0.029 0.509l-0.002-0.020c0 0.005 0.001 0.011 0.001 0.018 0 0.142-0.115 0.258-0.258 0.258-0.097 0-0.181-0.053-0.225-0.132l-0.001-0.001c-0.253-0.546-0.4-1.184-0.4-1.857 0-0.154 0.008-0.306 0.023-0.456l-0.002 0.019zM34.98 51.838c0 0.005 0.001 0.011 0.001 0.018 0 0.142-0.115 0.258-0.258 0.258-0.097 0-0.181-0.053-0.225-0.132l-0.001-0.001c-0.259-0.552-0.41-1.198-0.41-1.879 0-2.327 1.761-4.242 4.023-4.485l0.020-0.002c0.141-0.016 0.305-0.025 0.471-0.025 0.914 0 1.763 0.276 2.47 0.749l-0.016-0.010c0.061 0.048 0.1 0.121 0.1 0.204 0 0.142-0.115 0.258-0.258 0.258-0.020 0-0.039-0.002-0.058-0.006l0.002 0c-0.336-0.087-0.721-0.137-1.119-0.137-0.010 0-0.020 0-0.030 0h0.002c-0.010-0-0.023-0-0.035-0-2.435 0-4.439 1.847-4.688 4.216l-0.002 0.020c-0.013 0.128-0.021 0.276-0.021 0.427 0 0.186 0.011 0.37 0.034 0.55l-0.002-0.022zM39.321 54.066c-0.090 0.009-0.194 0.013-0.299 0.013-0.869 0-1.661-0.333-2.255-0.877l0.002 0.002c-0.047-0.047-0.077-0.112-0.077-0.184 0-0.142 0.115-0.258 0.258-0.258 0.029 0 0.058 0.005 0.084 0.014l-0.002-0.001c0.312 0.114 0.672 0.18 1.047 0.18 0.171 0 0.338-0.014 0.502-0.040l-0.018 0.002c1.376-0.224 2.448-1.296 2.67-2.654l0.003-0.019c0.024-0.145 0.038-0.313 0.038-0.484 0-0.375-0.066-0.736-0.187-1.069l0.007 0.022c-0.009-0.025-0.013-0.053-0.013-0.082 0-0.142 0.115-0.258 0.258-0.258 0.072 0 0.137 0.029 0.184 0.077v0c0.546 0.592 0.88 1.386 0.88 2.258 0 0.103-0.005 0.206-0.014 0.307l0.001-0.013c-0.156 1.626-1.441 2.909-3.054 3.061l-0.014 0.001zM40.88 36.768c-0.088 0.008-0.19 0.013-0.294 0.013-0.872 0-1.666-0.334-2.26-0.882l0.002 0.002c-0.047-0.047-0.077-0.112-0.077-0.184 0-0.142 0.115-0.258 0.258-0.258 0.029 0 0.058 0.005 0.084 0.014l-0.002-0.001c0.312 0.114 0.672 0.18 1.047 0.18 0.171 0 0.339-0.014 0.502-0.040l-0.018 0.002c1.385-0.222 2.465-1.303 2.681-2.671l0.002-0.018c0.024-0.145 0.038-0.313 0.038-0.484 0-0.375-0.066-0.736-0.187-1.069l0.007 0.022c-0.009-0.025-0.013-0.053-0.013-0.082 0-0.142 0.115-0.258 0.258-0.258 0.072 0 0.137 0.029 0.184 0.077v0c0.546 0.592 0.88 1.386 0.88 2.258 0 0.103-0.005 0.206-0.014 0.307l0.001-0.013c-0.147 1.639-1.44 2.934-3.065 3.083l-0.013 0.001zM42.438 19.427c-0.088 0.008-0.19 0.013-0.294 0.013-0.872 0-1.666-0.334-2.26-0.882l0.002 0.002c-0.047-0.047-0.077-0.112-0.077-0.184 0-0.142 0.115-0.258 0.258-0.258 0.029 0 0.058 0.005 0.084 0.014l-0.002-0.001c0.312 0.114 0.672 0.18 1.047 0.18 0.171 0 0.338-0.014 0.502-0.040l-0.018 0.002c1.376-0.224 2.448-1.296 2.67-2.654l0.003-0.019c0.024-0.145 0.038-0.313 0.038-0.484 0-0.375-0.066-0.736-0.187-1.069l0.007 0.022c-0.009-0.025-0.013-0.053-0.013-0.082 0-0.142 0.115-0.258 0.258-0.258 0.072 0 0.137 0.029 0.184 0.077v0c0.546 0.592 0.88 1.386 0.88 2.258 0 0.104-0.005 0.206-0.014 0.307l0.001-0.013c-0.154 1.629-1.439 2.914-3.054 3.067l-0.014 0.001z"></path>
</symbol>
<symbol id="icon-spanner-outline" viewBox="0 0 72 72">
<title>spanner-outline</title>
<path d="M27 48c0 1.657-1.343 3-3 3s-3-1.343-3-3c0-1.657 1.343-3 3-3s3 1.343 3 3z"></path>
<path d="M62.199 13.971c-1.176-1.134-3.039-1.131-4.197 0.027 1.161-1.158 1.164-3.024 0.030-4.2-3.234-2.376-7.215-3.798-11.532-3.798-10.77 0-19.5 8.73-19.5 19.5 0 0.387 0.069 0.756 0.093 1.137-1.011 0.717-8.679 6.441-12.774 9.903-3.405 2.97-5.319 7.125-5.319 11.46 0 8.271 6.729 15 15 15 4.395 0 8.562-1.95 11.433-5.352 3.519-4.125 9.24-11.769 9.951-12.687 0.36-0.030 0.729 0.039 1.116 0.039 10.77 0 19.5-8.73 19.5-19.5 0-4.32-1.422-8.298-3.801-11.529zM24 57c-4.968 0-9-4.029-9-9 0-2.76 1.269-5.196 3.192-6.876 7.104-6.006 10.851-8.244 15.345-12.045-0.315-1.146-0.537-2.331-0.537-3.579 0-7.455 6.045-13.5 13.5-13.5 1.41 0 2.742 0.276 4.017 0.678l-8.517 8.322 1.5 7.5 7.5 1.5 8.415-8.223c0.345 1.188 0.585 2.421 0.585 3.723 0 7.455-6.045 13.5-13.5 13.5-1.248 0-2.433-0.222-3.579-0.54-3.801 4.494-6.039 8.244-12.072 15.315-1.653 1.956-4.089 3.225-6.849 3.225zM58.152 18.813l-8.115 7.935-3.987-0.798-0.789-3.942 8.178-7.989c1.953 1.179 3.57 2.817 4.713 4.794z"></path>
</symbol>
<symbol id="icon-weather-partly-sunny" viewBox="0 0 72 72">
<title>weather-partly-sunny</title>
<path d="M43.5 9l-3 9-3-9c-0.552-1.659 0.342-3.447 1.998-3.999 1.659-0.555 3.45 0.342 4.002 1.998 0.225 0.678 0.21 1.374 0 2.001z"></path>
<path d="M59.592 18.15l-8.487 4.245 4.245-8.487c0.783-1.563 2.682-2.193 4.242-1.416 1.563 0.783 2.193 2.682 1.416 4.245-0.321 0.636-0.822 1.116-1.416 1.413z"></path>
<path d="M64.5 36l-9-3 9-3c1.659-0.555 3.447 0.342 4.002 2.001 0.552 1.656-0.345 3.444-2.004 3.999-0.675 0.225-1.371 0.207-1.998 0z"></path>
<path d="M25.65 13.908l4.245 8.487-8.487-4.245c-1.563-0.783-2.196-2.682-1.416-4.242 0.783-1.563 2.685-2.193 4.242-1.416 0.639 0.321 1.119 0.822 1.416 1.416z"></path>
<path d="M53.328 37.026c0.417-1.272 0.672-2.613 0.672-4.026 0-7.443-6.057-13.5-13.5-13.5-4.020 0-7.611 1.782-10.071 4.584-0.147-0.021-0.276-0.084-0.429-0.084-5.328 0-10.107 2.34-13.407 6.033-0.72-0.24-1.416-0.258-2.091-0.033-1.659 0.555-2.556 2.343-2.004 3.999 0.171 0.501 0.474 0.897 0.831 1.233-0.849 2.091-1.329 4.374-1.329 6.768 0 0.126 0 0.252 0.006 0.378-5.175 1.335-9.006 6.039-9.006 11.622 0 6.618 5.385 12 12 12h33c8.271 0 15-6.729 15-15 0-6.387-4.032-11.817-9.672-13.974zM40.5 25.5c4.137 0 7.5 3.363 7.5 7.5 0 1.098-0.288 2.118-0.714 3.057-1.062 0.063-2.16 0.222-3.354 0.564-1.563-4.059-4.812-7.245-8.901-8.715 1.368-1.47 3.306-2.406 5.469-2.406zM48 60h-33c-3.312 0-6-2.691-6-6s2.688-6 5.724-6.018l4.266 0.048-0.744-3.606c-0.165-0.789-0.246-1.608-0.246-2.424 0-6.618 5.385-12 12-12 0.072 0 0.135-0.039 0.207-0.042 5.712 0.165 10.485 4.218 11.541 9.81 0.093 0.234 0.066 0.393 0.114 0.558 0.369 1.308 1.551 2.118 2.838 2.136 0.318-0.003 0.591 0.009 0.867-0.069 0.936-0.27 1.707-0.393 2.433-0.393 4.962 0 9 4.038 9 9s-4.038 9-9 9z"></path>
</symbol>
</defs>
</svg>
